projeto_unidade_ii_vf/simulation/qsim/processador_instrucoes.msim.vcd
$comment
	File created using the following command:
		vcd file processador_instrucoes.msim.vcd -direction
$end
$date
	Tue Jun 02 11:09:14 2026
$end
$version
	ModelSim Version 10.1d
$end
$timescale
	1ps
$end
$scope module rtl_vlg_vec_tst $end
$var reg 1 ! clk $end
$var reg 1 " rsr $end
$var wire 1 # CODestado [6] $end
$var wire 1 $ CODestado [5] $end
$var wire 1 % CODestado [4] $end
$var wire 1 & CODestado [3] $end
$var wire 1 ' CODestado [2] $end
$var wire 1 ( CODestado [1] $end
$var wire 1 ) CODestado [0] $end
$var wire 1 * sampler $end
$scope module i1 $end
$var wire 1 + gnd $end
$var wire 1 , vcc $end
$var wire 1 - unknown $end
$var tri1 1 . devclrn $end
$var tri1 1 / devpor $end
$var tri1 1 0 devoe $end
$var wire 1 1 clk~combout $end
$var wire 1 2 clk~clkctrl_outclk $end
$var wire 1 3 U2_CONTROLADOR|estado_atual.DECODIFICACAO~feeder_combout $end
$var wire 1 4 rsr~combout $end
$var wire 1 5 rsr~clkctrl_outclk $end
$var wire 1 6 U2_CONTROLADOR|estado_atual.DECODIFICACAO~regout $end
$var wire 1 7 U2_CONTROLADOR|prox_estado~2_combout $end
$var wire 1 8 U2_CONTROLADOR|estado_atual.BUSCA~regout $end
$var wire 1 9 U2_CONTROLADOR|estado_atual.INICIO~feeder_combout $end
$var wire 1 : U2_CONTROLADOR|estado_atual.INICIO~regout $end
$var wire 1 ; U1_DATAPATH|U1_PC|pc_out~1_combout $end
$var wire 1 < U1_DATAPATH|U3_IR|instruc_out[0]~1_combout $end
$var wire 1 = U1_DATAPATH|U3_IR|instruc_out~2_combout $end
$var wire 1 > U1_DATAPATH|U1_PC|pc_out~0_combout $end
$var wire 1 ? U1_DATAPATH|U3_IR|instruc_out~0_combout $end
$var wire 1 @ U2_CONTROLADOR|prox_estado.EXEC_00~0_combout $end
$var wire 1 A U2_CONTROLADOR|estado_atual.EXEC_00~regout $end
$var wire 1 B U2_CONTROLADOR|prox_estado.EXEC_01~0_combout $end
$var wire 1 C U2_CONTROLADOR|estado_atual.EXEC_01~regout $end
$var wire 1 D U2_CONTROLADOR|prox_estado.EXEC_10~0_combout $end
$var wire 1 E U2_CONTROLADOR|estado_atual.EXEC_10~regout $end
$var wire 1 F U2_CONTROLADOR|prox_estado.EXEC_11~0_combout $end
$var wire 1 G U2_CONTROLADOR|estado_atual.EXEC_11~regout $end
$var wire 1 H U1_DATAPATH|U3_IR|instruc_out [7] $end
$var wire 1 I U1_DATAPATH|U3_IR|instruc_out [6] $end
$var wire 1 J U1_DATAPATH|U3_IR|instruc_out [5] $end
$var wire 1 K U1_DATAPATH|U3_IR|instruc_out [4] $end
$var wire 1 L U1_DATAPATH|U3_IR|instruc_out [3] $end
$var wire 1 M U1_DATAPATH|U3_IR|instruc_out [2] $end
$var wire 1 N U1_DATAPATH|U3_IR|instruc_out [1] $end
$var wire 1 O U1_DATAPATH|U3_IR|instruc_out [0] $end
$var wire 1 P U1_DATAPATH|U1_PC|pc_out [1] $end
$var wire 1 Q U1_DATAPATH|U1_PC|pc_out [0] $end
$upscope $end
$upscope $end
$enddefinitions $end
#0
$dumpvars
0!
1"
0)
0(
0'
0&
0%
0$
0#
x*
0+
1,
x-
1.
1/
10
01
02
03
14
15
06
17
08
19
0:
0;
1<
0=
0>
0?
0@
0A
0B
0C
0D
0E
0F
0G
0O
0N
zM
zL
zK
zJ
zI
zH
0Q
0P
$end
#30000
0"
04
05
0*
#50000
1!
11
12
1*
1:
18
1;
07
13
1)
#100000
0!
01
02
0*
#150000
1!
11
12
1*
1Q
08
16
1>
1=
0;
0<
03
1@
0)
1(
#200000
0!
01
02
0*
#250000
1!
11
12
1*
1A
06
0@
17
1'
0(
#300000
0!
01
02
0*
#350000
1!
11
12
1*
0A
18
1<
07
13
0'
1)
#400000
0!
01
02
0*
#450000
1!
11
12
1*
1P
1O
0Q
08
16
1?
1B
0=
1;
0<
03
0)
1(
#500000
0!
01
02
0*
#550000
1!
11
12
1*
1C
06
0B
17
1&
0(
#600000
0!
01
02
0*
#650000
1!
11
12
1*
0C
18
1<
07
13
0&
1)
#700000
0!
01
02
0*
#750000
1!
11
12
1*
1N
0O
1Q
08
16
1D
0>
1=
0;
0<
03
0)
1(
#800000
0!
01
02
0*
#850000
1!
11
12
1*
1E
06
0D
17
1%
0(
#900000
0!
01
02
0*
#950000
1!
11
12
1*
0E
18
1<
07
13
0%
1)
